Receive Data Cube Data • CubeR
…
subset<-c("620812.02", "5171499.36")

pxl_hst_5 <- suppressMessages(pixel_history(coverage, coord_sys, bands, subset, date = NULL,plot=F))
pxl_hst_5 <- pxl_hst_5 %>% as.tibble

## Warning: `as.tibble()` is deprecated, use `as_tibble()` (but mind the new semantics).
## This warning is displayed once per session.

pxl_hst_5

## # A tibble: 171 x 7
##    Date         AOT   B02   B03   B04   B08   WVP
##    <date>     <dbl> <dbl> <dbl> <dbl> <dbl> <dbl>
##  1 2015-06-27   213   926  1061   946  2825   721
##  2 2015-07-04   213   660  1159  1375  3707  1205
##  3 2015-07-24   307   378   853   605  5419  1956
##  4 2015-08-03   148   252   696   245  6240   913
##  5 2015-08-06   159   256   632   284  5882  1508
##  6 2015-08-13   148   190   636   307  6147  1357
##  7 2015-08-16   201  8907  8005  7026  8111   568
##  8 2015-08-23   201  9438  9039  8783  8949   510
##  9 2015-08-26   136   235   623   281  5625  1034
## 10 2015-09-02   201  8569  8135  7654  8064   342
## # ... with 161 more rows
…
