Process on Cube • CubeR
…
nd1.tab <- norm_diff_pixel(coverage, coords, band1=NIR, band2=Red, date = NULL,plot = F) %>% as.tibble

## Warning: `as.tibble()` is deprecated, use `as_tibble()` (but mind the new semantics).
## This warning is displayed once per session.

#nd1.plot <- norm_diff_pixel(coverage, coords, band1=NIR, band2=Red, date = NULL,plot = T)

nd1.tab

## # A tibble: 171 x 2
##    times                        res
##    <fct>                      <dbl>
##  1 2015-06-27T00:00:00.000Z 0.498  
##  2 2015-07-04T00:00:00.000Z 0.459  
##  3 2015-07-24T00:00:00.000Z 0.799  
##  4 2015-08-03T00:00:00.000Z 0.924  
##  5 2015-08-06T00:00:00.000Z 0.908  
##  6 2015-08-13T00:00:00.000Z 0.905  
##  7 2015-08-16T00:00:00.000Z 0.0717 
##  8 2015-08-23T00:00:00.000Z 0.00936
##  9 2015-08-26T00:00:00.000Z 0.905  
## 10 2015-09-02T00:00:00.000Z 0.0261 
## # ... with 161 more rows
…
ndvi.S2<-nd1.tab %>% 
  dplyr::mutate(Date=as_date(times)) %>% 
  tibble::add_column(Value=nd1.tab$res) %>% 
  tibble::add_column(Sensor="Raw S2 NDVI 10m") %>% 
  dplyr::select(-c(times,res)) %>% 
  dplyr::filter(year(Date)=="2016" & month(Date)>2)

# Bind
allndvi<-rbind(ndvi.MONA,ndvi.S2) %>% arrange(Date)
allndvi

## # A tibble: 364 x 3
##    Date         Value Sensor         
##    <date>       <dbl> <chr>          
##  1 2016-03-01 -0.038  MONALISA NDVI  
##  2 2016-03-02  0.307  MONALISA NDVI  
##  3 2016-03-03 -0.069  MONALISA NDVI  
##  4 2016-03-03  0.0186 Raw S2 NDVI 10m
##  5 2016-03-04 -0.038  MONALISA NDVI  
##  6 2016-03-05 -0.074  MONALISA NDVI  
##  7 2016-03-06 -0.099  MONALISA NDVI  
##  8 2016-03-07 -0.076  MONALISA NDVI  
##  9 2016-03-08 -0.036  MONALISA NDVI  
## 10 2016-03-09 -0.019  MONALISA NDVI  
## # ... with 354 more rows
…
